{
"TOTAL_MEMORY": 268435456,
"dataUrl": "model.data.unityweb",
"asmCodeUrl": "model.asm.code.unityweb",
"asmMemoryUrl": "model.asm.memory.unityweb",
"asmFrameworkUrl": "model.asm.framework.unityweb",
"splashScreenStyle": "Dark",
"backgroundColor": "#04042B"
}